; Engine configuration file.
; It's best edited using the editor UI and not directly,
; since the parameters that go here are not all obvious.
;
; Format:
;   [section] ; section goes between []
;   param=value ; assign values to parameters

config_version=5

[application]

config/name="Godot Test"
config/version="0.7"
run/main_scene="res://scenes/Main.tscn"
config/features=PackedStringArray("4.3", "Forward Plus")
config/icon="res://icon.svg"

[autoload]

Utils="*res://scripts/global/Utils.gd"
SignalBus="*res://scripts/global/SignalBus.gd"
GlobalSteam="*res://scripts/global/GlobalSteam.gd"
SteamLobby="*res://scripts/global/SteamLobby.gd"
SteamP2p="*res://scripts/global/SteamP2P.gd"
GlobalShortcuts="*res://scripts/global/GlobalShortcuts.gd"
NetworkTime="*res://addons/netfox/network-time.gd"
NetworkTimeSynchronizer="*res://addons/netfox/network-time-synchronizer.gd"
NetworkRollback="*res://addons/netfox/rollback/network-rollback.gd"
NetworkEvents="*res://addons/netfox/network-events.gd"
NetworkPerformance="*res://addons/netfox/network-performance.gd"
GlobalGameState="*res://scripts/global/GlobalGameState.gd"
SecurityDevicesUtils="*res://scripts/global/SecurityDevicesUtils.gd"
UniqueIds="*res://scripts/global/UniqueIds.gd"

[debug]

file_logging/enable_file_logging=true

[display]

window/size/viewport_width=1920
window/size/viewport_height=1080
window/size/resizable=false
window/size/window_width_override=1152
window/size/window_height_override=648
window/stretch/mode="canvas_items"
window/stretch/aspect="expand"

[editor_plugins]

enabled=PackedStringArray("res://addons/gdLinter/plugin.cfg", "res://addons/gdscript_formatter/plugin.cfg", "res://addons/netfox.internals/plugin.cfg", "res://addons/netfox/plugin.cfg")

[global_group]

Interactable="All interactable objects"
Players=""
World=""
"Can Place Device"=""
"Security Devices"=""
"Can Place Lasers"=""

[input]

move_right={
"deadzone": 0.5,
"events": [Object(InputEventKey,"resource_local_to_scene":false,"resource_name":"","device":-1,"window_id":0,"alt_pressed":false,"shift_pressed":false,"ctrl_pressed":false,"meta_pressed":false,"pressed":false,"keycode":0,"physical_keycode":68,"key_label":0,"unicode":100,"location":0,"echo":false,"script":null)
]
}
move_left={
"deadzone": 0.5,
"events": [Object(InputEventKey,"resource_local_to_scene":false,"resource_name":"","device":-1,"window_id":0,"alt_pressed":false,"shift_pressed":false,"ctrl_pressed":false,"meta_pressed":false,"pressed":false,"keycode":0,"physical_keycode":65,"key_label":0,"unicode":113,"location":0,"echo":false,"script":null)
]
}
move_forward={
"deadzone": 0.5,
"events": [Object(InputEventKey,"resource_local_to_scene":false,"resource_name":"","device":-1,"window_id":0,"alt_pressed":false,"shift_pressed":false,"ctrl_pressed":false,"meta_pressed":false,"pressed":false,"keycode":0,"physical_keycode":87,"key_label":0,"unicode":122,"location":0,"echo":false,"script":null)
]
}
move_back={
"deadzone": 0.5,
"events": [Object(InputEventKey,"resource_local_to_scene":false,"resource_name":"","device":-1,"window_id":0,"alt_pressed":false,"shift_pressed":false,"ctrl_pressed":false,"meta_pressed":false,"pressed":false,"keycode":0,"physical_keycode":83,"key_label":0,"unicode":115,"location":0,"echo":false,"script":null)
]
}
jump={
"deadzone": 0.5,
"events": [Object(InputEventKey,"resource_local_to_scene":false,"resource_name":"","device":-1,"window_id":0,"alt_pressed":false,"shift_pressed":false,"ctrl_pressed":false,"meta_pressed":false,"pressed":false,"keycode":0,"physical_keycode":32,"key_label":0,"unicode":32,"location":0,"echo":false,"script":null)
]
}
sprint={
"deadzone": 0.5,
"events": [Object(InputEventKey,"resource_local_to_scene":false,"resource_name":"","device":-1,"window_id":0,"alt_pressed":false,"shift_pressed":false,"ctrl_pressed":false,"meta_pressed":false,"pressed":false,"keycode":0,"physical_keycode":4194326,"key_label":0,"unicode":0,"location":0,"echo":false,"script":null)
]
}
crouch={
"deadzone": 0.5,
"events": [Object(InputEventKey,"resource_local_to_scene":false,"resource_name":"","device":-1,"window_id":0,"alt_pressed":false,"shift_pressed":false,"ctrl_pressed":false,"meta_pressed":false,"pressed":false,"keycode":0,"physical_keycode":4194325,"key_label":0,"unicode":0,"location":0,"echo":false,"script":null)
]
}
flashlight={
"deadzone": 0.5,
"events": [Object(InputEventKey,"resource_local_to_scene":false,"resource_name":"","device":-1,"window_id":0,"alt_pressed":false,"shift_pressed":false,"ctrl_pressed":false,"meta_pressed":false,"pressed":false,"keycode":0,"physical_keycode":70,"key_label":0,"unicode":102,"location":0,"echo":false,"script":null)
]
}
switch_camera={
"deadzone": 0.5,
"events": [Object(InputEventKey,"resource_local_to_scene":false,"resource_name":"","device":-1,"window_id":0,"alt_pressed":false,"shift_pressed":false,"ctrl_pressed":false,"meta_pressed":false,"pressed":false,"keycode":0,"physical_keycode":4194306,"key_label":0,"unicode":0,"location":0,"echo":false,"script":null)
]
}
shoot={
"deadzone": 0.5,
"events": [Object(InputEventMouseButton,"resource_local_to_scene":false,"resource_name":"","device":-1,"window_id":0,"alt_pressed":false,"shift_pressed":false,"ctrl_pressed":false,"meta_pressed":false,"button_mask":1,"position":Vector2(107, 27),"global_position":Vector2(112, 77),"factor":1.0,"button_index":1,"canceled":false,"pressed":true,"double_click":false,"script":null)
]
}
zoom_in={
"deadzone": 0.5,
"events": [Object(InputEventMouseButton,"resource_local_to_scene":false,"resource_name":"","device":-1,"window_id":0,"alt_pressed":false,"shift_pressed":false,"ctrl_pressed":false,"meta_pressed":false,"button_mask":8,"position":Vector2(200, 33),"global_position":Vector2(205, 83),"factor":1.0,"button_index":4,"canceled":false,"pressed":true,"double_click":false,"script":null)
]
}
zoom_out={
"deadzone": 0.5,
"events": [Object(InputEventMouseButton,"resource_local_to_scene":false,"resource_name":"","device":-1,"window_id":0,"alt_pressed":false,"shift_pressed":false,"ctrl_pressed":false,"meta_pressed":false,"button_mask":16,"position":Vector2(289, 11),"global_position":Vector2(294, 61),"factor":1.0,"button_index":5,"canceled":false,"pressed":true,"double_click":false,"script":null)
]
}
interact={
"deadzone": 0.5,
"events": [Object(InputEventKey,"resource_local_to_scene":false,"resource_name":"","device":-1,"window_id":0,"alt_pressed":false,"shift_pressed":false,"ctrl_pressed":false,"meta_pressed":false,"pressed":false,"keycode":0,"physical_keycode":69,"key_label":0,"unicode":101,"location":0,"echo":false,"script":null)
]
}

[layer_names]

3d_render/layer_1="General"
3d_render/layer_2="First person invisible"
3d_render/layer_3="Security player only"
3d_physics/layer_2="interactable"
3d_physics/layer_3="pickupable"
3d_physics/layer_4="Allowed Placement"

[rendering]

anti_aliasing/quality/msaa_3d=2
