[gd_scene load_steps=4 format=3 uid="uid://rti0pc6u6sd"]

[ext_resource type="PackedScene" uid="uid://rgkp0vvdtmf0" path="res://models/range-robot.blend" id="1_046su"]
[ext_resource type="Script" path="res://scripts/models/SecurityRangeRobotModel.gd" id="2_e3exx"]
[ext_resource type="PackedScene" uid="uid://da8wq2m487nvr" path="res://scenes/particles/MuzzleFlashParticles.tscn" id="3_13vsu"]

[node name="SecurityRangeRobotModel" node_paths=PackedStringArray("x_model", "y_model") instance=ExtResource("1_046su")]
script = ExtResource("2_e3exx")
x_model = NodePath("Body/Head")
y_model = NodePath("Body")

[node name="MuzzleFlashParticles" parent="Body/Gun base/Barrel" index="0" instance=ExtResource("3_13vsu")]

[node name="OmniLight3D" type="OmniLight3D" parent="Body" index="2"]
transform = Transform3D(1, 0, 0, 0, 1, 0, 0, 0, 1, 0, -0.123688, 0)
light_color = Color(1, 0, 0, 1)
light_energy = 0.3
omni_range = 1.0
