[gd_scene load_steps=6 format=3 uid="uid://dmhq0580h85vk"]

[sub_resource type="Curve" id="Curve_leq5i"]
_data = [Vector2(0, 1), 0.0, 0.0, 0, 0, Vector2(1, 0), 0.0, 0.0, 0, 0]
point_count = 2

[sub_resource type="CurveTexture" id="CurveTexture_hvesh"]
curve = SubResource("Curve_leq5i")

[sub_resource type="ParticleProcessMaterial" id="ParticleProcessMaterial_maavm"]
spread = 180.0
initial_velocity_min = 0.5
initial_velocity_max = 0.5
gravity = Vector3(0, 0, 0)
radial_accel_min = 3.0
radial_accel_max = 3.0
damping_min = 2.0
damping_max = 3.0
scale_curve = SubResource("CurveTexture_hvesh")

[sub_resource type="StandardMaterial3D" id="StandardMaterial3D_gtew6"]
albedo_color = Color(1, 0, 0, 1)
emission_enabled = true
emission = Color(1, 0, 0, 1)
disable_receive_shadows = true

[sub_resource type="BoxMesh" id="BoxMesh_tnkkp"]
material = SubResource("StandardMaterial3D_gtew6")
size = Vector3(0.05, 0.05, 0.05)

[node name="SecurityMeleeRobotParticles" type="GPUParticles3D"]
transform = Transform3D(1, 0, 0, 0, 1, 0, 0, 0, 1, -0.349896, 0.537581, 0.796928)
amount = 40
lifetime = 0.5
local_coords = true
process_material = SubResource("ParticleProcessMaterial_maavm")
draw_pass_1 = SubResource("BoxMesh_tnkkp")
