[gd_scene load_steps=6 format=3 uid="uid://blh7ljr5avckt"]

[ext_resource type="Script" path="res://scripts/entities/terminals/HealingTerminal.gd" id="1_uytvw"]
[ext_resource type="PackedScene" uid="uid://bn08hnu1kon2w" path="res://models/heal-terminal.blend" id="2_efnho"]
[ext_resource type="PackedScene" uid="uid://cnxfw36lklhep" path="res://scenes/custom_nodes/Interactable.tscn" id="2_xh0rw"]

[sub_resource type="BoxShape3D" id="BoxShape3D_dk11a"]
size = Vector3(1.05151, 2.00539, 0.592224)

[sub_resource type="SceneReplicationConfig" id="SceneReplicationConfig_wxl37"]
properties/0/path = NodePath(".:price")
properties/0/spawn = true
properties/0/replication_mode = 2
properties/1/path = NodePath(".:heal_amount")
properties/1/spawn = true
properties/1/replication_mode = 2

[node name="HealingTerminal" type="Node3D"]
script = ExtResource("1_uytvw")

[node name="heal-terminal" parent="." instance=ExtResource("2_efnho")]

[node name="Interactable" parent="." instance=ExtResource("2_xh0rw")]
look_at_hint = "Heal [E]"

[node name="CollisionShape3D" type="CollisionShape3D" parent="Interactable"]
transform = Transform3D(1, 0, 0, 0, 1, 0, 0, 0, 1, 0.00378418, 1.01963, 0.30014)
shape = SubResource("BoxShape3D_dk11a")

[node name="MultiplayerSynchronizer" type="MultiplayerSynchronizer" parent="."]
replication_config = SubResource("SceneReplicationConfig_wxl37")

[connection signal="interacted" from="Interactable" to="." method="_on_interactable_interacted"]
