[gd_scene load_steps=3 format=3 uid="uid://dffi5i24g2akg"]

[ext_resource type="Script" path="res://scripts/custom_nodes/FPSCameraWithAI.gd" id="1_hnkwq"]
[ext_resource type="PackedScene" uid="uid://ckpyf7v7k4pv8" path="res://scenes/custom_nodes/CameraFov.tscn" id="2_j3dq1"]

[node name="FpsCameraWithAi" type="Node3D"]
script = ExtResource("1_hnkwq")

[node name="CameraFov" parent="." instance=ExtResource("2_j3dq1")]

[connection signal="player_detected" from="CameraFov" to="." method="_on_camera_fov_player_detected"]
[connection signal="player_lost" from="CameraFov" to="." method="_on_camera_fov_player_lost"]
