[gd_scene load_steps=2 format=3 uid="uid://cnxfw36lklhep"]

[ext_resource type="Script" path="res://scripts/custom_nodes/Interactable.gd" id="1_q5wu8"]

[node name="Interactable" type="Area3D" groups=["Interactable"]]
collision_layer = 2
script = ExtResource("1_q5wu8")
