[gd_scene load_steps=2 format=3 uid="uid://bdck40qbi10yn"]

[ext_resource type="Script" path="res://scripts/custom_nodes/MouseHoverArea3D.gd" id="1_wksfp"]

[node name="MouseHoverArea3D" type="Area3D"]
transform = Transform3D(1, 0, 0, 0, 1, 0, 0, 0, 1, 0, 1.05815, 0)
script = ExtResource("1_wksfp")

[connection signal="mouse_entered" from="." to="." method="_on_mouse_entered"]
[connection signal="mouse_exited" from="." to="." method="_on_mouse_exited"]
