[gd_scene load_steps=4 format=3 uid="uid://jgbi8rgt2fu3"]

[ext_resource type="Theme" uid="uid://dlj0yqbggm733" path="res://resources/ui_theme.tres" id="1_o2woi"]
[ext_resource type="Script" path="res://scripts/UI/VitalsTerminalHUD.gd" id="1_pwjkk"]
[ext_resource type="PackedScene" uid="uid://d2s12cpqj2ju0" path="res://scenes/UI/components/InfiltratorVitalsContainer.tscn" id="2_i8pjj"]

[node name="VitalsTerminalHUD" type="CanvasLayer"]
script = ExtResource("1_pwjkk")

[node name="ColorRect" type="ColorRect" parent="."]
anchors_preset = 15
anchor_right = 1.0
anchor_bottom = 1.0
grow_horizontal = 2
grow_vertical = 2
color = Color(0.0517993, 0.127118, 0.225743, 1)

[node name="MarginContainer" type="MarginContainer" parent="."]
anchors_preset = 15
anchor_right = 1.0
anchor_bottom = 1.0
grow_horizontal = 2
grow_vertical = 2
theme_override_constants/margin_left = 50
theme_override_constants/margin_top = 50
theme_override_constants/margin_right = 50
theme_override_constants/margin_bottom = 50

[node name="VBoxContainer" type="VBoxContainer" parent="MarginContainer"]
layout_mode = 2
theme_override_constants/separation = 50

[node name="Label" type="Label" parent="MarginContainer/VBoxContainer"]
layout_mode = 2
theme = ExtResource("1_o2woi")
theme_override_font_sizes/font_size = 100
text = "VITALS"
horizontal_alignment = 1

[node name="ColorRect2" type="ColorRect" parent="MarginContainer/VBoxContainer"]
custom_minimum_size = Vector2(0, 5)
layout_mode = 2

[node name="HBoxContainer" type="HBoxContainer" parent="MarginContainer/VBoxContainer"]
layout_mode = 2
theme_override_constants/separation = 20

[node name="InfiltratorVitalsContainer" parent="MarginContainer/VBoxContainer/HBoxContainer" instance=ExtResource("2_i8pjj")]
layout_mode = 2
