[gd_scene load_steps=6 format=3 uid="uid://bmbkwhukg0qny"]

[ext_resource type="PackedScene" uid="uid://dg13mwyggwr2t" path="res://scenes/models/world/DoorModel.tscn" id="1_67fj8"]
[ext_resource type="Script" path="res://scripts/world/Door.gd" id="1_cblrd"]
[ext_resource type="PackedScene" uid="uid://cnxfw36lklhep" path="res://scenes/custom_nodes/Interactable.tscn" id="3_h710e"]

[sub_resource type="BoxShape3D" id="BoxShape3D_qis2g"]
size = Vector3(2, 2.7, 0.5)

[sub_resource type="SceneReplicationConfig" id="SceneReplicationConfig_k0883"]
properties/0/path = NodePath(".:open")
properties/0/spawn = true
properties/0/replication_mode = 2
properties/1/path = NodePath(".:moving")
properties/1/spawn = true
properties/1/replication_mode = 2

[node name="Door" type="Node3D"]
script = ExtResource("1_cblrd")

[node name="door" parent="." instance=ExtResource("1_67fj8")]

[node name="Interactable" parent="." instance=ExtResource("3_h710e")]
look_at_hint = "Open [E]"

[node name="CollisionShape3D" type="CollisionShape3D" parent="Interactable"]
transform = Transform3D(1, 0, 0, 0, 1, 0, 0, 0, 1, 0, -0.7, 0)
shape = SubResource("BoxShape3D_qis2g")

[node name="ServerSynchronizer" type="MultiplayerSynchronizer" parent="."]
replication_config = SubResource("SceneReplicationConfig_k0883")

[connection signal="door_closed" from="door" to="." method="_on_door_door_closed"]
[connection signal="door_opened" from="door" to="." method="_on_door_door_opened"]
[connection signal="interacted" from="Interactable" to="." method="_on_interactable_interacted"]
