[gd_scene load_steps=3 format=3 uid="uid://52aj5t74ewa5"]

[ext_resource type="PackedScene" uid="uid://duei6oihmno78" path="res://models/room-corner.blend" id="1_0er8v"]
[ext_resource type="Script" path="res://scripts/models/world/WorldModel.gd" id="2_m3p7e"]

[node name="room-corner" instance=ExtResource("1_0er8v")]
script = ExtResource("2_m3p7e")
