[gd_scene load_steps=3 format=3 uid="uid://bx31hh7vlge7h"]

[ext_resource type="PackedScene" uid="uid://s1ofu78glrq" path="res://models/room-wall-half.blend" id="1_f1h81"]
[ext_resource type="Script" path="res://scripts/models/world/WorldModel.gd" id="2_okv8i"]

[node name="room-wall-half" instance=ExtResource("1_f1h81")]
script = ExtResource("2_okv8i")
